…
``` r
#months(pull(month))
#month.name(month)
  

pols_data
```

    ## # A tibble: 822 x 9
    ##    year  month gov_gop sen_gop rep_gop gov_dem sen_dem rep_dem president
    ##    <chr> <chr>   <dbl>   <dbl>   <dbl>   <dbl>   <dbl>   <dbl>     <dbl>
    ##  1 1947  01         23      51     253      23      45     198         1
    ##  2 1947  02         23      51     253      23      45     198         1
    ##  3 1947  03         23      51     253      23      45     198         1
    ##  4 1947  04         23      51     253      23      45     198         1
    ##  5 1947  05         23      51     253      23      45     198         1
    ##  6 1947  06         23      51     253      23      45     198         1
    ##  7 1947  07         23      51     253      23      45     198         1
    ##  8 1947  08         23      51     253      23      45     198         1
    ##  9 1947  09         23      51     253      23      45     198         1
    ## 10 1947  10         23      51     253      23      45     198         1
    ## # … with 812 more rows
…
    ## Parsed with column specification:
    ## cols(
    ##   date = col_character(),
    ##   close = col_double()
    ## )

``` r
snp_data
```

    ## # A tibble: 787 x 4
    ##    year  month day   close
    ##    <chr> <chr> <chr> <dbl>
    ##  1 2015  1     7     2080.
    ##  2 2015  1     6     2063.
    ##  3 2015  1     5     2107.
    ##  4 2015  1     4     2086.
    ##  5 2015  2     3     2068.
    ##  6 2015  2     2     2104.
    ##  7 2015  2     1     1995.
    ##  8 2014  1     12    2059.
    ##  9 2014  3     11    2068.
    ## 10 2014  1     10    2018.
    ## # … with 777 more rows
…
``` r
unemp_data
```

    ## # A tibble: 816 x 3
    ##     year month unemployment
    ##    <dbl> <chr>        <dbl>
    ##  1  1948 jan            3.4
    ##  2  1948 feb            3.8
    ##  3  1948 mar            4  
    ##  4  1948 apr            3.9
    ##  5  1948 may            3.5
    ##  6  1948 jun            3.6
    ##  7  1948 jul            3.6
    ##  8  1948 aug            3.9
    ##  9  1948 sep            3.8
    ## 10  1948 oct            3.7
    ## # … with 806 more rows
…
